{
  "count": 4,
  "next": "http://127.0.0.1:4000/api/v1/probes/df?page=2",
  "previous": null,
  "results": [
    {
      "mount_point": "/",
      "percent_left": "20",
      "url": "http://127.0.0.1:4000/api/v1/probes/df/"
    },
    {
      "mount_point": "/home",
      "percent_left": "10",
      "url": "http://127.0.0.1:4000/api/v1/probes/df/home"
    }
  ]
}